<svg:svg id="arrowContainer" xmlns:svg="http://www.w3.org/2000/svg" xmlns="http://www.w3.org/2000/svg" xmlns:xlink="http://www.w3.org/1999/xlink" height="48px" width="48px">
    <svg:defs>
        <svg:linearGradient id="linearGradient1442">
            <svg:stop id="stop1444" offset="0" style="stop-color:#73d216"/>
            <svg:stop id="stop1446" offset="1.0000000" style="stop-color:#4e9a06"/>
        </svg:linearGradient>
        <svg:linearGradient id="linearGradient8650">
            <svg:stop id="stop8652" offset="0" style="stop-color:#ffffff;stop-opacity:1;"/>
            <svg:stop id="stop8654" offset="1" style="stop-color:#ffffff;stop-opacity:0;"/>
        </svg:linearGradient>
        <svg:radialGradient xlink:href="#linearGradient1442" id="radialGradient1469" gradientUnits="userSpaceOnUse" gradientTransform="matrix(1.871885e-16,-0.843022,1.020168,2.265228e-16,0.606436,42.58614)" cx="35.292667" cy="20.494493" fx="35.292667" fy="20.494493" r="16.956199"/>
        <svg:radialGradient xlink:href="#linearGradient8650" id="radialGradient1471" gradientUnits="userSpaceOnUse" gradientTransform="matrix(3.749427e-16,-2.046729,-1.557610,-2.853404e-16,44.11559,66.93275)" cx="15.987216" cy="1.5350308" fx="15.987216" fy="1.5350308" r="17.171415"/>
    </svg:defs>
    <svg:g id="arrow">
        <svg:g transform="matrix(-1.000000,0.000000,0.000000,-1.000000,47.02856,43.99921)">
            <svg:path style="opacity:1.0000000;color:#000000;fill:url(#radialGradient1469);fill-opacity:1.0000000;fill-rule:evenodd;stroke:#3a7304;stroke-width:1.0000004;stroke-linecap:round;stroke-linejoin:round;marker:none;marker-start:none;marker-mid:none;marker-end:none;stroke-miterlimit:10.000000;stroke-dasharray:none;stroke-dashoffset:0.0000000;stroke-opacity:1;visibility:visible;display:inline;overflow:visible" d="M 14.519136,38.500000 L 32.524165,38.496094 L 32.524165,25.504468 L 40.519531,25.496656 L 23.374809,5.4992135 L 6.5285585,25.497284 L 14.524440,25.501074 L 14.519136,38.500000 z " id="path8643"/>
            <svg:path style="opacity:0.50802141;color:#000000;fill:url(#radialGradient1471);fill-opacity:1.0000000;fill-rule:evenodd;stroke:none;stroke-width:1.0000000;stroke-linecap:round;stroke-linejoin:round;marker:none;marker-start:none;marker-mid:none;marker-end:none;stroke-miterlimit:10.000000;stroke-dasharray:none;stroke-dashoffset:0.0000000;stroke-opacity:1.0000000;visibility:visible;display:inline;overflow:visible" d="M 39.429889,24.993467 L 32.023498,25.005186 L 32.026179,37.998023 L 16.647623,37.98887 C 17.417545,19.64788 27.370272,26.995797 32.029282,16.341991 L 39.429889,24.993467 z " id="path8645"/>
            <svg:path id="path8658" d="M 15.520704,37.496094 L 31.522109,37.500000 L 31.522109,24.507050 L 38.338920,24.491425 L 23.384644,7.0388396 L 8.6781173,24.495782 L 15.518018,24.501029 L 15.520704,37.496094 z " style="opacity:0.48128340;color:#000000;fill:none;fill-opacity:1.0000000;fill-rule:evenodd;stroke:#ffffff;stroke-width:1.0000004;stroke-linecap:butt;stroke-linejoin:miter;marker:none;marker-start:none;marker-mid:none;marker-end:none;stroke-miterlimit:10.000000;stroke-dasharray:none;stroke-dashoffset:0.0000000;stroke-opacity:1.0000000;visibility:visible;display:inline;overflow:visible"/>
        </svg:g>
    </svg:g>
</svg:svg>